Name;Level;Health;CostRessource1Build;CostRessource2Build;CostRessource3Build;CostRessource1Upgrade;CostRessource2Upgrade;CostRessource3Upgrade;TimeUpgrade;CapacityRessource1;CapacityRessource2;CapacityRessource3;StockRessource1;StockRessource2;StockRessource3;ProdRateRessource1;ProdRateRessource2;ProdRateRessource3;Buyable;PreConstructed;Effect
Town Hall;1;400;0;0;0;60;0;0;5;0;0;0;200;200;200;0;0;0;False;True;
Town Hall;2;400;0;0;0;200;0;0;60;0;0;0;200;200;200;0;0;0;False;False;
Town Hall ;3;450;0;0;0;800;0;0;200;0;0;0;200;200;200;0;0;0;False;False;
Town Hall ;4;500;0;0;0;2200;0;0;400;0;0;0;200;200;200;0;0;0;False;False;
Town Hall ;5;550;0;0;0;3000;0;0;1000;0;0;0;200;200;200;0;0;0;False;False;
Ressource 1 Prod;1;0;0;30;0;0;60;0;40;50;0;0;0;0;0;10;0;0;True;True;
Ressource 1 Prod;2;0;0;0;0;0;100;0;80;90;0;0;0;0;0;15;0;0;False;False;
Ressource 1 Prod;3;0;0;0;0;0;450;0;135;140;0;0;0;0;0;20;0;0;False;False;
Ressource 1 Prod;4;0;0;0;0;0;1100;0;250;175;0;0;0;0;0;25;0;0;False;False;
Ressource 1 Prod;5;0;0;0;0;0;0;0;3000;210;0;0;0;0;0;30;0;0;False;False;
Ressource 2 Prod;1;0;30;0;0;60;0;0;40;0;50;0;0;0;0;0;10;0;True;False;
Ressource 2 Prod;2;0;0;0;0;100;0;0;80;0;90;0;0;0;0;0;15;0;False;False;
Ressource 2 Prod;3;0;0;0;0;450;0;0;135;0;140;0;0;0;0;0;20;0;False;False;
Ressource 2 Prod;4;0;0;0;0;1100;0;0;250;0;175;0;0;0;0;0;25;0;False;False;
Ressource 2 Prod;5;0;0;0;0;0;0;0;3000;0;210;0;0;0;0;0;30;0;False;False;
Ressource 1 Stock;1;0;0;50;0;0;130;0;105;0;0;0;150;0;0;0;0;0;True;False;
Ressource 1 Stock;2;0;0;0;0;0;800;0;180;0;0;0;200;0;0;0;0;0;False;False;
Ressource 1 Stock;3;0;0;0;0;0;1600;0;350;0;0;0;400;0;0;0;0;0;False;False;
Ressource 1 Stock;4;0;0;0;0;0;0;0;3000;0;0;0;500;0;0;0;0;0;False;False;
Ressource 2 Stock;1;0;50;0;0;130;0;0;105;0;0;0;0;150;0;0;0;0;True;False;
Ressource 2 Stock;2;0;0;0;0;800;0;0;180;0;0;0;0;200;0;0;0;0;False;False;
Ressource 2 Stock;3;0;0;0;0;1600;0;0;350;0;0;0;0;400;0;0;0;0;False;False;
Ressource 2 Stock;4;0;0;0;0;0;0;0;3000;0;0;0;0;500;0;0;0;0;False;False;
Missile Launcher;1;100;10;0;0;90;0;0;20;0;0;0;0;0;0;0;0;0;True;False;Fire
Missile Launcher;2;100;0;0;0;150;0;0;60;0;0;0;0;0;0;0;0;0;False;False;Fire
Missile Launcher;3;100;0;0;0;400;0;0;90;0;0;0;0;0;0;0;0;0;False;False;Fire
Missile Launcher;4;100;0;0;0;800;0;0;280;0;0;0;0;0;0;0;0;0;False;False;Fire
Missile Launcher;5;100;0;0;0;0;0;0;3000;0;0;0;0;0;0;0;0;0;False;False;Fire
Attack Whale;1;0;10;0;0;90;0;0;20;0;0;0;0;0;0;0;0;0;True;True;
Attack Whale;2;0;0;0;0;150;0;0;60;0;0;0;0;0;0;0;0;0;False;False;
Attack Whale;3;0;0;0;0;400;0;0;90;0;0;0;0;0;0;0;0;0;False;False;
Attack Whale;4;0;0;0;0;800;0;0;280;0;0;0;0;0;0;0;0;0;False;False;
Attack Whale;5;0;0;0;0;0;0;0;3000;0;0;0;0;0;0;0;0;0;False;False;
Missile Factory;1;0;0;0;0;0;130;0;30;0;0;0;0;0;0;0;0;0;False;True;
Missile Factory ;2;0;0;0;0;0;400;0;250;0;0;0;0;0;0;0;0;0;False;False;
Missile Factory;3;0;0;0;0;0;1500;0;500;0;0;0;0;0;0;0;0;0;False;False;
Missile Factory;4;0;0;0;0;0;2500;0;600;0;0;0;0;0;0;0;0;0;False;False;
Missile Factory;5;0;0;0;0;0;0;0;3000;0;0;0;0;0;0;0;0;0;False;False;
Geo's Lab;1;0;0;200;0;0;1000;0;300;0;0;0;0;0;0;0;0;0;True;False;
Geo's Lab;2;0;0;0;0;0;2000;0;450;0;0;0;0;0;0;0;0;0;False;False;
Geo's Lab;3;0;0;0;0;0;0;0;3000;0;0;0;0;0;0;0;0;0;False;False;
Research Center;1;0;30;0;0;60;0;0;30;0;0;0;0;0;0;0;0;0;True;False;
Research Center;2;0;0;0;0;250;0;0;70;0;0;0;0;0;0;0;0;0;False;False;
Research Center;3;0;0;0;0;600;0;0;250;0;0;0;0;0;0;0;0;0;False;False;
Research Center;4;0;0;0;0;0;0;0;3000;0;0;0;0;0;0;0;0;0;False;False;
Exploration Manta Ray;1;0;15;0;0;900;0;0;0;0;0;0;0;0;0;0;0;0;True;False;
Exploration Manta Ray;2;0;0;0;0;1800;0;0;250;0;0;0;0;0;0;0;0;0;False;False;
Exploration Manta Ray;3;0;0;0;0;0;0;0;3000;0;0;0;0;0;0;0;0;0;False;False;
Bunker;1;100;20;0;0;60;0;0;20;0;0;0;0;0;0;0;0;0;True;True;
Bunker;2;150;0;0;0;120;0;0;50;0;0;0;0;0;0;0;0;0;False;False;
Bunker;3;200;0;0;0;500;0;0;100;0;0;0;0;0;0;0;0;0;False;False;
Bunker;4;250;0;0;0;1000;0;0;300;0;0;0;0;0;0;0;0;0;False;False;
Bunker;5;300;0;0;0;0;0;0;3000;0;0;0;0;0;0;0;0;0;False;False;
Local Shield Generator;1;100;20;0;0;600;0;0;80;0;0;0;0;0;0;0;0;0;True;False;Shield
Local Shield Generator;2;100;0;0;0;1300;0;0;350;0;0;0;0;0;0;0;0;0;False;False;Shield
Local Shield Generator;3;100;0;0;0;0;0;0;3000;0;0;0;0;0;0;0;0;0;False;False;Shield
EMP Tower;1;100;10;0;0;700;0;0;115;0;0;0;0;0;0;0;0;0;True;False;EMP
EMP Tower;2;100;0;0;0;1500;0;0;400;0;0;0;0;0;0;0;0;0;False;False;EMP
EMP Tower;3;100;0;0;0;0;0;0;3000;0;0;0;0;0;0;0;0;0;False;False;EMP