Name;LvlMissileFact;Description;Attack;Defense
Bill;1;;1;1
Cruz;2;;1;1
Flash;3;;1;1
Rainbow;4;;1;1
Freeze;5;;0;1
Magnet;6;;1;1
Sneaky;7;;1;1
Stealth;8;;1;1
Pepper;9;;1;0
Tag;1;;1;1
Salva;1;;1;1
Max;1;;1;1
Blackhat;1;;1;1